Consumo de alimento en salmones bajo 20% de actividad y su relación con FCRc y SGRc
…
23 June 2022

Base de datos

Los datos a utilizar corresponden a una base de datos con 7
variables: Año de cultivo (Year_class), unidad de
cultivo (Jaula) ,fecha en que se cosechó la jaula
(Fecha_cosecha), el alimento consumido bajo 20% de
actividad (Consumo_bajo_20), factor de conversión
corregido (FCRc) y tasa de crecimiento específica
corregida (SGRc). Los datos están balanceados.

read_excel("Base_Datos_Cons_FCR_SGR.xlsx")

## # A tibble: 273 × 7
##    Year_class Fecha_cosecha       Centro    Jaula   `Consumo_ bajo…`  FCRc  SGRc
##         <dbl> <dttm>              <chr>     <chr>              <dbl> <dbl> <dbl>
##  1       2021 2021-08-29 00:00:00 Chivato 1 Chivat…           0.0201 0.892  1.13
##  2       2021 2021-09-02 00:00:00 Chivato 1 Chivat…           0.0156 0.91   1.10
##  3       2021 2021-09-07 00:00:00 Chivato 1 Chivat…           0.0754 0.968  1.05
##  4       2021 2021-09-18 00:00:00 Chivato 1 Chivat…           0.0579 0.966  1.06
##  5       2021 2021-09-20 00:00:00 Chivato 1 Chivat…           0.0375 0.942  1.04
##  6       2021 2021-09-23 00:00:00 Chivato 1 Chivat…           0.0715 0.911  1.07
##  7       2021 2021-09-23 00:00:00 Chivato 1 Chivat…           0.0721 0.985  1.06
##  8       2021 2021-09-29 00:00:00 Chivato 1 Chivat…           0.0775 0.966  1.08
##  9       2021 2021-10-01 00:00:00 Chivato 1 Chivat…           0.0383 0.932  1.05
## 10       2021 2021-10-03 00:00:00 Chivato 1 Chivat…           0.0274 0.936  1.05
## # … with 263 more rows
…
